<svg xmlns="http://www.w3.org/2000/svg" viewBox="0 0 220 177">
  <style>
    @font-face {
      font-family: "ObjektivMk2W03";
      src: url("/fonts/objektiv/ObjektivMk2W03-Bold.eot");
      src: url("/fonts/objektiv/ObjektivMk2W03-Bold.eot?#iefix") format("embedded-opentype"), url("/fonts/objektiv/ObjektivMk2W03-Bold.woff") format("woff"), url("/fonts/objektiv/ObjektivMk2W03-Bold.ttf") format("truetype"), url("/fonts/objektiv/ObjektivMk2W03-Bold.svg#ObjektivMk2W03") format("svg");
      font-weight: 500;
      font-style: normal; }
  </style>
  <g transform="translate(-848 -291)">
    <g>
      <path d="M5,0H220a0,0,0,0,1,0,0V137a5,5,0,0,1-5,5H5a5,5,0,0,1-5-5V5A5,5,0,0,1,5,0Z" transform="translate(848 326)" fill="#0fd40a"/>
      <path d="M5,0H146a5,5,0,0,1,5,5V35a0,0,0,0,1,0,0H0a0,0,0,0,1,0,0V5A5,5,0,0,1,5,0Z" transform="translate(917 291)" fill="#0fd40a"/>
      <text transform="translate(917 299.263)" fill="#fff" font-size="18" font-family="ObjektivMk2W03, sans-serif" font-weight="700"><tspan x="9.707" y="20">advertisement</tspan></text>
      <rect width="17.327" height="51.98" rx="5" transform="translate(915.68 390.565) rotate(-45)" fill="#fff"/>
      <rect width="17.327" height="67.974" rx="5" transform="translate(988.248 367.004) rotate(45)" fill="#fff"/>
    </g>
  </g>
</svg>
