<?xml version="1.0" encoding="UTF-8"?>
<svg version="1.1" viewBox="0 0 379.26 176.88" xmlns="http://www.w3.org/2000/svg">
 <g transform="translate(0)" data-name="Group 165">
  <g transform="translate(0)" data-name="Group 136">
   <path transform="translate(-142.76 -240.27)" d="m331.93 242.81-2.934 2.785-58.052 156.02h195.11l55.536-151.97a6.965 6.965 0 0 0-6.544-9.361h-175.15z" fill="#b4b4b4" data-name="Path 1541"/>
   <path transform="translate(-138.49 -235.91)" d="m329.21 242.74-2.8 2.709-55.467 151.79h186.41l53.06-147.86a6.761 6.761 0 0 0-6.253-9.107h-167.34z" data-name="Path 1564"/>
   <path transform="translate(-175.42 -240.27)" d="m372.63 240.27h-1.969a11.968 11.968 0 0 0-11.237 7.833l-56.609 153.5h9.782z" fill="#b4b4b4" data-name="Path 1542"/>
   <path transform="translate(-171.15 -235.91)" d="m372.63 240.27h-1.969a11.958 11.958 0 0 0-11.237 7.621l-56.608 149.35h9.781z" data-name="Path 1565"/>
   <path transform="translate(194.75 161.34)" d="m0 0h128v13.194a2.35 2.35 0 0 1-2.35 2.35h-125.65v-15.544z" fill="#757575" data-name="Rectangle 56"/>
   <path transform="translate(-312.84 -105.86)" d="m507.59 282.74h-182.94c-6.519 0-11.809-3.476-11.809-7.773 0-4.291 5.29-7.773 11.809-7.773h182.94z" fill="#9d9d9d" data-name="Path 1543"/>
   <path transform="matrix(-.978 -.208 .208 -.978 256.19 141.02)" d="M42.7,13.1.046,22.174S-2.013,3.643,21.35.3C39.788-2.339,42.7,13.1,42.7,13.1Z" fill="#fff" data-name="Path 1700"/>
  </g>
 </g>
 <g transform="translate(23.203 41.835)" fill="#0aad03" data-name="Group 166">
  <path id="Heart_Rght" transform="translate(2318.7 2799)" d="m-2257-2747.9c0.171-0.278-14.124-16.144-13.991-16.144-0.132-0.265 13.86-11.133 13.991-11.265 0 0.132-11.108-14.15-11.241-14.2a28.888 28.888 0 0 0-21.424-9.473 28.961 28.961 0 0 0-28.961 28.962 28.833 28.833 0 0 0 5.85 17.456h-0.048l0.237 0.248a29.146 29.146 0 0 0 4.227 4.416l40.324 42.13-0.206-17.832-4.751-12.042z" data-name="Heart Rght"/>
  <path id="Heart_Left" transform="translate(2405.9 2799)" d="m-2316.8-2747.4a28.905 28.905 0 0 0 10.882-22.627 28.961 28.961 0 0 0-28.962-28.961 28.886 28.886 0 0 0-21.423 9.473c0.132 0.578 10.976 14.067 11.241 14.332l-22.944 11.041s23.178 16.1 22.944 16.235c0 0-22.994 11.123-22.944 11.007s11.91 13.29 11.91 13.29c0.017-0.05-0.01 17.8 0 17.832z" data-name="Heart Left"/>
 </g>
</svg>
