<svg xmlns="http://www.w3.org/2000/svg" width="88.833" height="146.197" viewBox="0 0 88.833 146.197">
  <g id="Group_231" data-name="Group 231" transform="translate(-781.951 -307.973)">
    <g id="AA_Solutions_Light_Bulb" data-name="AA Solutions Light Bulb" transform="translate(800.314 408.748)">
      <path id="Path_1810" data-name="Path 1810" d="M362.02,81.4h12.241a9,9,0,0,1,9.02,9.02V109.1a9,9,0,0,1-9.02,9.02H362.02A9,9,0,0,1,353,109.1V90.742A9.287,9.287,0,0,1,362.02,81.4Z" transform="translate(-342.047 -72.702)" fill="#212226"/>
      <rect id="Rectangle_73" data-name="Rectangle 73" width="51.864" height="38.012" transform="translate(0)" fill="#d1d1d1"/>
      <g id="Group_194" data-name="Group 194" transform="translate(0.322 4.188)">
        <path id="Path_1811" data-name="Path 1811" d="M349.7,82.255l51.542,4.51V84.51L349.7,80Z" transform="translate(-349.7 -80)" opacity="0.2"/>
        <path id="Path_1812" data-name="Path 1812" d="M349.7,84.655l51.542,4.51V86.91L349.7,82.4Z" transform="translate(-349.7 -74.669)" opacity="0.2"/>
        <path id="Path_1813" data-name="Path 1813" d="M349.7,87.055l51.542,4.51V89.31L349.7,84.8Z" transform="translate(-349.7 -69.337)" opacity="0.2"/>
        <path id="Path_1814" data-name="Path 1814" d="M349.7,89.455l51.542,4.51V91.71L349.7,87.2Z" transform="translate(-349.7 -64.006)" opacity="0.2"/>
      </g>
      <path id="Light_Bulb" data-name="Light Bulb" d="M343.924,91.818a44.425,44.425,0,0,1,88.588-4.832,43.364,43.364,0,0,1-9.986,32.858,39.637,39.637,0,0,0-8.376,21.261l-.966,9.664H362.93l-.966-9.664a39.637,39.637,0,0,0-8.376-21.261A46.038,46.038,0,0,1,343.924,91.818Z" transform="translate(-362.286 -148.192)" fill="#ffe600"/>
      <path id="Light_bulb_shadow" data-name="Light bulb shadow" d="M428.61,84.3c-2.963-24.3-22.521-36.548-22.575-36.545a44.2,44.2,0,0,1,38.979,39.3,43.364,43.364,0,0,1-9.986,32.858,39.637,39.637,0,0,0-8.376,21.261l-.966,9.664-22.165-.95c.2-4.939,1.81-13.344,5.532-18.768C419.229,116.294,430.806,102.308,428.61,84.3Z" transform="translate(-374.788 -148.264)" fill="#85804a" opacity="0.65"/>
    </g>
  </g>
</svg>
