<?xml version="1.0" encoding="utf-8"?>
<!-- Generator: Adobe Illustrator 23.0.3, SVG Export Plug-In . SVG Version: 6.00 Build 0)  -->
<svg version="1.1" id="Layer_1" xmlns="http://www.w3.org/2000/svg" xmlns:xlink="http://www.w3.org/1999/xlink" x="0px" y="0px"
	 viewBox="0 0 1479.6 1744.3" style="enable-background:new 0 0 1479.6 1744.3;" xml:space="preserve">
<style type="text/css">
	.st0{fill:#E8E8E8;}
	.st1{fill:#ED1E45;}
	.st2{fill:#0FD40A;}
	.st3{fill:#C1FFAD;}
	.st4{fill:#0B7A75;}
	.st5{fill:#59B279;}
	.st6{fill:#62EF5F;}
	.st7{fill:#B21239;}
</style>
<g id="water-illustration" transform="matrix(0.914, -0.407, 0.407, 0.914, 1021.404, 344.716)">
	<path id="Grey_blob" class="st0" d="M408.6,92.1c6.3-186.3-136.8-220.5-227.7-177.7C52-25,56.8,52.9-109.8-95.4
		c-56.5-50.3-135.1-80.2-210.8-63.8c-54.4,11.7-103.9,47.6-129,97.4c-13.9,27.7-20.3,58.5-31.4,87.4s-29,57.4-57.1,70.3
		c-27.2,12.4-59.1,8-87.4-1.4c-68.1-22.6-125.1-72.6-195.4-89c-59.3-13.9-131.6-6.8-182.9,27.5c-67.2,44.8-95.2,128.5-113.5,203.3
		c-21.5,87.7-24.6,179.5-12.6,268.8c15.4,114.5,55.1,224.9,109.7,326.6c48.6,90.6,109.6,175.7,187.9,242.3
		c123.8,105.4,341,193.3,470.1,48.6c155.4-174.1-22.4-316,183.1-289.1c123,16.1,323.7-58.9,272.6-314.2S399.5,360.4,408.6,92.1z"/>
</g>
<g id="Group_113" transform="matrix(0.914, -0.407, 0.407, 0.914, 121.67, 120.305)">
	<g id="Group_114" transform="translate(-114.199 166.567)">
		<path id="Path_1374-2_1_" class="st1" d="M737,671c0.1,0-6.5-17.4-6.7-17.5l87.9-24.6c0,0,0.8,3,1.6,5.6L737,671z"/>
		<path id="Path_1504_1_" class="st1" d="M670.5,619.5c0,0-36.6-19.2-16.5-56.2c20.1-37,46.7-1.8,46.7-1.8l-3.2,7.3
			c0,0-23.2-31.4-36.8-2.5c-13.6,28.9,5.4,41.8,12.8,46.5L670.5,619.5z"/>
		<path id="Path_1503_1_" class="st1" d="M832.2,613.8c-0.1,0,6,28.6,6.1,28.7l-20.2-7.3l-1.6-5.6L832.2,613.8z"/>
		<path id="Path_1373-2_1_" class="st1" d="M713.3,549.4l51,22.6c3.5,1.6,5.2,5.5,4.1,9.1l-27.1,85.4c-1.3,4-5.5,6.2-9.5,4.9
			c-0.3-0.1-0.6-0.2-0.8-0.3l-63.9-28.5c-3.8-1.7-5.5-6.2-3.7-10c0.1-0.3,0.3-0.5,0.4-0.8l40-79.6
			C705.8,549,709.9,547.8,713.3,549.4z"/>
	</g>
</g>
<path class="st2" d="M1221.5,557.9c2.8-10.8-0.1-22.9-0.1-22.9c-27.5,2-42.8,24.9-31,32.5C1206.8,578.1,1219,566.9,1221.5,557.9z"/>
<path class="st3" d="M1199.8,548.9c-1.3-11-8.4-21.2-8.4-21.2c-24.8,11.9-30.6,38.8-16.9,41.6C1193.7,573,1201,558.2,1199.8,548.9z"
	/>
<path class="st2" d="M1177.1,544.1c-5.5-8.4-15.4-13.8-15.4-13.8c-15.2,19.8-9,43.9,3.2,40.6C1182,566.3,1181.9,551.3,1177.1,544.1z
	"/>
<path class="st4" d="M1158.9,541.3c-7.8-4.6-17.9-5-17.9-5c-4.4,21.9,10,38.9,18.6,31.5C1171.6,557.3,1165.6,545.2,1158.9,541.3z"/>
<path class="st4" d="M1238.2,455.5c2.3-39.7-16-80.4-16-80.4c-95.4,26.1-133.3,117.2-86.7,135.9
	C1200.7,537.1,1236.2,489.5,1238.2,455.5z"/>
<path class="st5" d="M1212.3,385.9c-9.8,5-17.9,12.5-24.8,20.9c-1.8,2-3.3,4.2-4.9,6.4c-1.4,2.3-3.2,4.4-4.6,6.8l-4,7.1l-2,3.6
	l-1.7,3.7c-4.6,9.8-8.2,20-11,30.6l-3.7,15.9l-2.2,16.1c-0.2,2.8-0.8,5.4-0.9,8.1l-0.3,8.1l-0.7,16.2c0.4,10.8,0.4,21.7,1.3,32.5
	c1.2,10.7,2,21.6,3.6,32.2l5.4,32l0.8-0.1c-0.3-11-1.4-21.7-2.1-32.5c-0.9-10.7-1.1-21.5-1.7-32.1v-32l1-15.9l0.4-7.9
	c0.1-2.6,0.7-5.2,1-7.8l2-15.7l3.2-15.3c2.3-10.2,5.4-20.2,9.3-29.9l1.3-3.7l1.7-3.6l3.4-7c1.1-2.3,2.7-4.4,4-6.7
	c1.3-2.3,2.8-4.4,4.3-6.6c5.8-8.9,13.2-16.7,21.9-22.8L1212.3,385.9z"/>
<path class="st2" d="M1087.6,423.1c-1.4-30.2,13-61,13-61c72.3,20.9,100.3,90.6,64.6,104.3C1115.3,485.6,1088.7,448.9,1087.6,423.1z
	"/>
<path class="st3" d="M1107.7,371c12.3,18.5,22,38.7,30.2,59.3c8.1,20.7,14.8,41.9,19.9,63.6c1.2,5.4,2.2,10.9,3.4,16.3l1.7,8.1
	l1.3,8.2l2.6,16.5l1.8,16.6l0.9,8.3l0.6,8.3l0.9,16.7c0.4,11.1,0.2,22.2,0.3,33.4h0.6c0.6-5.6,1-11.1,1.3-16.7
	c0.2-5.6,0.9-11.2,0.9-16.8l-0.2-16.8l-0.1-8.4l-0.6-8.4c-0.4-5.6-0.8-11.2-1.3-16.8l-2.3-16.7l-1.2-8.3l-1.6-8.3
	c-1-5.6-2-11.1-3.2-16.6c-5.6-21.8-12.2-43.4-21.3-63.9c-2.2-5.1-4.7-10.2-7.2-15.2c-2.4-5.1-5.1-10-7.9-14.9
	c-5.9-9.7-11.7-19.2-19-27.8L1107.7,371z"/>
<path class="st3" d="M1322.4,337.6c-0.9-55.7-30.9-110.5-30.9-110.5C1161.2,273.7,1118,404.9,1185,425.9
	C1278.9,455.4,1323.3,385.1,1322.4,337.6z"/>
<path class="st2" d="M1278.7,243.6c-22.1,25.7-39.2,55.1-53.8,85.7c-14.2,30.7-25.7,62.7-34,95.5c-1.9,8.2-3.6,16.6-5.3,24.8
	c-0.9,4.1-1.9,8.2-2.6,12.5l-1.8,12.6c-1.2,8.3-2.6,16.7-3.6,25.1l-2,25.3l-1,12.7l-0.2,12.7l-0.3,25.3c-0.1,4.2,0.1,8.4,0.3,12.7
	l0.7,12.7l1.3,25.3l0.9-0.1c1.1-17,0.6-33.9,1.7-50.7l1.6-25.1l0.8-12.6l1.6-12.5c1-8.3,2.1-16.6,2.9-24.9
	c1.2-8.2,2.8-16.5,4.1-24.7l2-12.3c0.7-4.1,1.7-8.1,2.6-12.2c1.8-8.1,3.4-16.2,5.4-24.3l6.6-24.1c2-8.1,5.2-15.8,7.6-23.8
	c1.3-4,2.4-8,3.9-11.9l4.4-11.7l4.4-11.7l4.8-11.6l4.8-11.6l5.4-11.3c3.4-7.7,7.6-14.9,11.5-22.3c7.8-14.9,16.6-29.2,26.2-43
	L1278.7,243.6z"/>
<path class="st6" d="M1337.2,459.1c12.3-38.2,4.7-82.7,4.7-82.7c-99.8,1.4-159.9,80.9-119.1,111
	C1280,529.3,1326.8,491.7,1337.2,459.1z"/>
<path class="st3" d="M1329.4,384.3c-21.7,11.6-40.2,27.9-57,45.6c-16.6,18-31.1,37.8-43.5,58.9l-8.8,16.1c-3,5.3-5.2,11.1-7.9,16.6
	c-5.3,10.9-9.5,22.5-13.8,33.9c-2.2,5.7-3.9,11.6-5.7,17.5l-5.3,17.6c-3,11.9-5.6,23.8-8.3,35.7l0.7,0.1
	c4.1-11.6,7.2-23.3,11.1-34.8l6.1-17.1c2-5.8,3.9-11.6,6.4-17c2.4-5.6,4.9-11,7-16.7c2-5.7,5-11,7.4-16.5c2.7-5.3,4.9-11,8-16.1
	l8.9-15.7c11.9-20.9,25.8-40.6,41.5-58.7c3.9-4.6,7.8-9.1,12.1-13.3l6.3-6.4l6.7-6.1c8.8-8.3,18.2-16,28.4-22.7L1329.4,384.3z"/>
<g transform="translate(0 0)">
	<path class="st1" d="M1216.6,630l8.4-66.8c0-0.2,0-0.4,0-0.7c0-3.1-2.6-5.7-5.7-5.7l-73.6-0.4c-0.2,0-0.4,0-0.7,0
		c-3.1,0.3-5.3,3.1-5,6.2l7.6,66.9c0.3,2.8,2.7,5,5.6,5l57.7,0.3C1213.8,635,1216.3,632.9,1216.6,630z"/>
	<path class="st1" d="M1230.5,567.1l1.8-11.3c0-0.2,0-0.3,0-0.6c0.1-2.1-1.6-3.8-3.7-3.8l-92.1-0.7c-0.2,0-0.3,0-0.6,0
		c-2,0.3-3.4,2.2-3.1,4.2l1.7,11.3c0.2,1.9,1.8,3.2,3.7,3.2l88.6,0.6C1228.7,570.1,1230.3,568.8,1230.5,567.1z"/>
</g>
<polygon class="st7" points="1141.8,577.2 1140.9,569.5 1224.2,570.1 1223.3,577.2 "/>
</svg>
